<svg width="236" height="71" viewBox="0 0 236 71" fill="none" xmlns="http://www.w3.org/2000/svg">
<path d="M48.7686 66.1759H46.6945V69.7407H42.9028V56.3564H49.0278C50.2269 56.3564 51.2964 56.5509 52.1714 56.9722C53.0788 57.3611 53.7593 57.9444 54.2454 58.6898C54.7315 59.4352 54.9584 60.3101 54.9584 61.3148C54.9584 62.287 54.7315 63.1296 54.2778 63.8426C53.8241 64.5555 53.176 65.1389 52.3334 65.5277L55.2177 69.7407H51.1667L48.7686 66.1759ZM50.5834 59.8564C50.1945 59.5 49.6112 59.3379 48.8334 59.3379H46.7269V63.2592H48.8334C49.6112 63.2592 50.1945 63.0972 50.5834 62.7407C50.9723 62.4166 51.1667 61.9305 51.1667 61.2824C51.1667 60.6666 50.9723 60.1805 50.5834 59.8564Z" fill="#929293"/>
<path d="M75.4721 66.7917V69.7084H64.7129V56.3241H75.2129V59.2408H68.4721V61.5093H74.4027V64.3287H68.4721V66.7917H75.4721Z" fill="#929293"/>
<path d="M88.1112 69.125C87.0093 68.5417 86.1344 67.6991 85.4862 66.662C84.8381 65.5926 84.5464 64.3935 84.5464 63.0648C84.5464 61.7361 84.8705 60.537 85.4862 59.4676C86.1344 58.3982 87.0093 57.588 88.1112 57.0046C89.2131 56.4213 90.4769 56.1296 91.8705 56.1296C93.1019 56.1296 94.2038 56.3565 95.176 56.7778C96.1482 57.1991 96.9584 57.8472 97.639 58.6574L95.2408 60.8287C94.3658 59.7917 93.3288 59.2732 92.0973 59.2732C91.3844 59.2732 90.7362 59.4352 90.1529 59.7593C89.5695 60.0833 89.1482 60.537 88.8242 61.1204C88.5001 61.7037 88.3705 62.3519 88.3705 63.1296C88.3705 63.875 88.5325 64.5556 88.8242 65.1389C89.1482 65.7222 89.5695 66.1759 90.1529 66.5C90.7038 66.8241 91.3519 66.9861 92.0973 66.9861C93.3288 66.9861 94.3982 66.4676 95.2408 65.4306L97.639 67.6019C96.9908 68.412 96.1806 69.0278 95.176 69.4815C94.2038 69.9028 93.1019 70.1296 91.8705 70.1296C90.4769 70 89.2131 69.7083 88.1112 69.125Z" fill="#929293"/>
<path d="M109.597 69.0926C108.463 68.5093 107.588 67.6667 106.94 66.5972C106.292 65.5278 105.968 64.3611 105.968 63.0324C105.968 61.7037 106.292 60.5046 106.94 59.4676C107.588 58.3982 108.463 57.588 109.597 56.9722C110.732 56.3889 111.996 56.0648 113.421 56.0648C114.847 56.0648 116.111 56.3565 117.246 56.9722C118.38 57.5556 119.255 58.3982 119.903 59.4676C120.551 60.537 120.875 61.7037 120.875 63.0324C120.875 64.3611 120.551 65.5602 119.903 66.5972C119.255 67.6667 118.38 68.4769 117.246 69.0926C116.111 69.6759 114.847 70 113.421 70C111.996 70 110.732 69.7083 109.597 69.0926ZM115.236 66.4028C115.787 66.0787 116.209 65.625 116.533 65.0417C116.857 64.4583 117.019 63.8102 117.019 63.0324C117.019 62.287 116.857 61.6065 116.533 61.0232C116.209 60.4398 115.787 59.9861 115.236 59.662C114.685 59.338 114.07 59.1759 113.389 59.1759C112.709 59.1759 112.093 59.338 111.542 59.662C110.991 59.9861 110.57 60.4398 110.246 61.0232C109.921 61.6065 109.759 62.2546 109.759 63.0324C109.759 63.7778 109.921 64.4583 110.246 65.0417C110.57 65.625 110.991 66.0787 111.542 66.4028C112.093 66.7269 112.709 66.8889 113.389 66.8889C114.102 66.8565 114.718 66.6944 115.236 66.4028Z" fill="#929293"/>
<path d="M136.334 66.1759H134.259V69.7407H130.468V56.3564H136.593C137.792 56.3564 138.861 56.5509 139.736 56.9722C140.644 57.3611 141.324 57.9444 141.81 58.6898C142.296 59.4352 142.523 60.3101 142.523 61.3148C142.523 62.287 142.296 63.1296 141.843 63.8426C141.389 64.5555 140.741 65.1389 139.898 65.5277L142.783 69.7407H138.732L136.334 66.1759ZM138.116 59.8564C137.727 59.5 137.144 59.3379 136.366 59.3379H134.259V63.2592H136.366C137.144 63.2592 137.727 63.0972 138.116 62.7407C138.505 62.4166 138.699 61.9305 138.699 61.2824C138.732 60.6666 138.537 60.1805 138.116 59.8564Z" fill="#929293"/>
<path d="M152.278 56.3564H158.597C160.056 56.3564 161.352 56.6157 162.486 57.1666C163.62 57.7176 164.495 58.4953 165.111 59.5C165.727 60.5046 166.051 61.6713 166.051 63.0324C166.051 64.3935 165.727 65.5601 165.111 66.5648C164.495 67.5694 163.62 68.3472 162.486 68.8981C161.352 69.449 160.056 69.7083 158.597 69.7083H152.278V56.3564ZM158.468 66.7268C159.602 66.7268 160.542 66.4027 161.222 65.7546C161.903 65.1064 162.259 64.199 162.259 63.0648C162.259 61.9305 161.903 61.0231 161.222 60.375C160.542 59.7268 159.602 59.4027 158.468 59.4027H156.07V66.7592H158.468V66.7268Z" fill="#929293"/>
<path d="M177.264 69.6111C176.259 69.3519 175.417 68.9954 174.769 68.5417L176 65.7546C176.583 66.1435 177.296 66.4676 178.074 66.6944C178.852 66.9213 179.63 67.0509 180.407 67.0509C181.866 67.0509 182.579 66.6944 182.579 65.9491C182.579 65.5602 182.384 65.2685 181.963 65.1065C181.542 64.912 180.894 64.7176 179.954 64.5232C178.949 64.2963 178.107 64.0694 177.426 63.8102C176.745 63.5509 176.162 63.162 175.676 62.6111C175.19 62.0602 174.963 61.3148 174.963 60.4074C174.963 59.5972 175.19 58.8519 175.644 58.2037C176.097 57.5556 176.745 57.037 177.653 56.6482C178.528 56.2593 179.63 56.0648 180.926 56.0648C181.801 56.0648 182.676 56.162 183.519 56.3565C184.361 56.5509 185.139 56.8426 185.787 57.2315L184.62 60.0509C183.356 59.3704 182.125 59.0139 180.926 59.0139C180.181 59.0139 179.63 59.1111 179.273 59.338C178.917 59.5648 178.755 59.8565 178.755 60.213C178.755 60.5694 178.949 60.8287 179.37 61.0232C179.792 61.2176 180.44 61.3796 181.347 61.5741C182.352 61.8009 183.227 62.0278 183.875 62.287C184.556 62.5463 185.139 62.9352 185.625 63.4861C186.111 64.037 186.37 64.75 186.37 65.6898C186.37 66.5 186.144 67.213 185.69 67.8611C185.236 68.5093 184.588 69.0278 183.681 69.4167C182.773 69.8056 181.704 70 180.44 70C179.338 70 178.269 69.8704 177.264 69.6111Z" fill="#929293"/>
<path d="M60.176 1.06939C58.9445 5.34717 58.264 8.71754 58.3936 12.9953C58.5557 17.4675 61.2779 18.9583 62.2825 22.7499C62.8982 25.1157 62.4769 29.2638 61.7316 31.4675C60.5325 34.9999 60.2084 37.4953 60.2084 40.9953C64.0001 40.9953 67.7918 40.9953 71.551 41.0277C71.551 39.2129 71.2594 36.8796 71.6158 34.9675C72.0047 32.8286 73.2362 30.949 73.6251 28.6481L73.7223 26.1851L76.0881 28.5833C81.176 28.4861 86.264 28.324 91.3519 28.162C91.3519 24.9861 91.6436 22.5231 90.2177 19.5416C84.3195 19.7685 78.389 19.9305 72.4908 20.0601C69.8658 16.787 69.7038 15.1342 69.7038 10.7916C76.4121 10.7592 83.1205 10.6296 89.8288 10.4351C89.5695 6.99995 90.7686 4.31013 91.6112 0.972168C81.176 1.03698 70.676 1.03698 60.176 1.06939Z" fill="#181719"/>
<path d="M4.04643 1.06946L1.25939 10.9537C0.740871 12.7361 1.00013 14.6482 1.90754 16.2685C2.78254 17.7917 3.81957 19.1852 4.3705 21.2593C5.01865 23.7222 4.56494 28 3.81957 30.3009C2.6205 34.0278 2.29643 36.7824 2.29643 40.8333C6.08809 40.8658 9.87976 40.8658 13.639 40.8982C13.639 37.1713 13.5418 34.3519 15.1298 30.9167C17.5603 31.0139 18.7918 31.0463 21.1899 31.1111L22.7131 29.4583L23.0372 33.7037C23.1344 35.0324 23.5881 36.2963 24.3983 37.3982C25.2733 38.6296 26.2455 39.7963 27.1529 40.963C31.2038 40.963 35.2548 40.9954 39.3057 40.9954C36.3566 37.2361 34.5094 34.0602 32.6946 29.6204C35.0603 28.6482 37.1344 26.963 38.5603 25.0509C40.602 22.2639 38.7224 19.9954 37.2964 17.3056C36.0649 14.9398 36.1298 11.375 34.5094 8.78242C33.2131 6.74076 31.7224 4.34261 29.5835 3.11112C26.764 1.52316 23.7501 1.2639 20.639 1.13427C17.5603 1.13427 14.4816 1.13427 11.4029 1.13427L9.45846 3.27316L9.29643 1.13427L4.04643 1.06946ZM27.1529 21.5833C26.3427 22.6204 24.3983 23.0093 22.0649 22.9121C19.9585 22.8148 17.852 22.7176 15.7455 22.6204C15.0649 20.3195 13.5094 18.7639 12.5696 16.463C11.6946 14.3565 11.8242 12.7685 11.8242 10.3704C13.9307 10.4352 16.0372 10.5 18.1437 10.5648C20.477 10.6296 22.227 11.213 23.4261 12.3472C24.6251 13.4815 24.6251 15.0046 25.8242 17.0139C26.9909 18.9908 27.9631 20.5463 27.1529 21.5833Z" fill="#181719"/>
<path d="M52.3012 12.9954C52.1391 8.6852 52.8521 5.34724 54.0836 1.06946C50.2919 1.06946 46.5002 1.06946 42.741 1.06946C41.5095 5.28242 40.8289 8.62039 40.9586 12.8982C41.1206 17.3704 43.8428 18.9259 44.8475 22.8148C44.9447 23.1713 45.0095 23.5602 45.0419 23.9815L47.3752 23.0093L44.9447 29.4908C44.7826 29.9445 44.6206 30.4306 44.491 30.9167C44.4262 31.0787 44.3937 31.2732 44.3289 31.4352C43.1299 34.9352 42.8058 37.4306 42.8058 40.9954C46.5975 40.9954 50.3891 41.0278 54.1484 41.0278C54.1484 37.4954 54.4725 35 55.6715 31.5C56.4169 29.3287 56.8382 25.1806 56.2225 22.8472C55.1854 18.9908 52.4632 17.4676 52.3012 12.9954Z" fill="#181719"/>
<path d="M230.056 11.8287C231.093 7.61572 233.134 4.34257 235.5 0.64813C233.88 0.64813 232.292 0.64813 230.672 0.64813L227.852 2.85183L228.209 0.615723C227.042 0.615723 225.875 0.615723 224.676 0.615723C222.278 4.21294 219.167 8.42591 218.778 12.8981C218.616 14.9722 220.042 16.2685 220.236 18.1805C220.463 20.5787 219.134 23.4954 218.389 25.8611C217.611 23.1713 217.093 20.0602 215.44 17.9537C213.787 15.8796 211.746 14.875 210.547 12.6389C208.44 8.78239 208.148 4.63424 208.181 0.64813C204.713 0.64813 201.213 0.64813 197.746 0.64813C195.315 3.95369 192.269 7.90739 191.783 12.2176C191.556 14.2592 192.949 15.3935 193.144 17.2407C193.403 19.6713 192.172 22.4259 191.394 24.9537C190.584 22.1991 190.065 19.2176 188.347 17.2083C186.662 15.2315 184.718 14.3565 183.519 12.1528C181.477 8.42591 181.185 4.4398 181.185 0.64813C177.297 0.64813 173.375 0.64813 169.486 0.680537C169.486 3.88887 169.778 6.54628 171.009 9.78702C172.565 13.7731 175.968 15.3611 177.977 19.0555C179.338 21.5185 180.31 25.375 180.505 28.3241C180.797 32.9259 181.185 36.2315 182.547 40.9953C184.264 40.9953 186.014 40.9953 187.732 40.9953L189.968 38.2731L190.389 41.0278C191.847 41.0278 193.273 41.0278 194.732 41.0278C195.477 38.5 196.06 35.3889 197.162 33.0879C198.134 31.0787 199.658 29.5231 200.597 27.5463C202.607 23.3333 204 18.8935 202.121 15.037C205.718 18.1481 207.922 22.4259 208.44 27.7407C208.634 29.6203 208.116 31.3703 208.278 33.2824C208.472 35.8426 209.704 38.662 210.417 41.0926C214.468 41.0926 218.519 41.125 222.57 41.1574C223.801 37.1389 224.903 33.8333 227.172 30.5278C228.922 27.9676 230.834 23.7546 231.028 20.5787C231.222 17.3379 229.246 15.2315 230.056 11.8287Z" fill="#181719"/>
<path d="M107.199 32.3102C108.301 29.6204 108.561 27.4491 108.496 24.5973C108.431 20.8704 107.459 20.0602 105.806 16.9167C103.311 12.1852 104.801 6.02784 106.389 0.907471C102.598 0.939878 98.8059 0.939878 95.0466 0.972286C93.8152 5.05562 93.1346 8.32877 93.2642 12.4769C93.3939 15.9445 95.2087 17.4677 96.4401 19.8982L97.542 18.7964L97.4772 24.4677C97.5096 26.7038 97.1531 29.2964 96.6346 30.9167C95.4355 34.676 95.1114 37.301 95.1114 41.0602C105.287 41.0602 115.463 41.0278 125.607 41.0278C125.607 37.7871 125.445 34.9352 126.352 31.7917C119.968 31.9214 113.584 32.1158 107.199 32.3102Z" fill="#181719"/>
<path d="M167.963 13.7083C166.829 12.2176 166.278 10.5324 165.273 8.97685C163.685 6.51389 161.093 3.88889 158.533 2.33333C155.421 0.421296 151.241 0 147.708 0C143.593 0 139.477 0.907407 135.653 2.56019C131.894 4.18056 128.783 6.28704 126.449 9.98148C123.597 14.5185 126.709 16.7222 127.454 20.5787C128.037 23.5278 128.815 27.8704 129.204 31.3704C129.56 34.6435 133.384 37.463 136.269 38.9861C139.898 40.9306 143.82 41.8704 147.708 41.8704C151.5 41.8704 155.616 40.9954 159.148 38.8241C162.616 36.6852 165.338 33.4768 168.028 30.5278C170.977 27.3194 172.889 22.4583 172.079 19.1204C171.625 17.1759 169.421 15.6852 167.963 13.7083ZM159.181 25.537C158.306 27.3519 156.102 29.0694 154.417 29.912C152.667 30.787 150.269 31.5648 148.292 31.5972C146.283 31.6296 144.63 31.1759 143.398 30.2037C142.167 29.2315 141.292 27.8704 140.352 26.088C139.412 24.338 139.121 22.0694 138.926 20.0602C138.732 18.1157 136.528 16.2037 136.658 14.2269C136.755 12.6389 138.699 11.1481 140.352 10.1759C142.005 9.2037 143.82 8.71759 145.861 8.65278C147.903 8.58796 149.718 9.00926 151.371 9.85185C152.829 10.5972 153.736 11.6667 155.065 12.9954L155.259 11.0185L159.926 17.6296C159.926 17.662 159.958 17.662 159.958 17.6944L160.056 17.8565C160.347 18.3102 160.542 18.8287 160.607 19.3472C160.833 21.3565 160.023 23.7222 159.181 25.537Z" fill="#181719"/>
</svg>
